[gd_scene load_steps=2 format=2]

[ext_resource path="res://assets/backgrounds/Montanhas2.png" type="Texture" id=1]

[node name="ParallaxBackground" type="ParallaxBackground"]

[node name="Moon" type="ParallaxLayer" parent="."]
position = Vector2( -192, 0 )
motion_scale = Vector2( 0.05, 0.05 )

[node name="Sprite" type="Sprite" parent="Moon"]
position = Vector2( 0, -80 )
texture = ExtResource( 1 )
centered = false
region_rect = Rect2( 96, 0, 32, 32 )

