[gd_scene load_steps=4 format=2]

[ext_resource path="res://src/entities/player/CloakShader.tres" type="Material" id=1]
[ext_resource path="res://assets/entities/player/Player Dash Test.png" type="Texture" id=2]
[ext_resource path="res://src/entities/player/EquipController.gd" type="Script" id=3]








[node name="ShaderTest" type="Node"]

[node name="Sprite" type="Sprite" parent="."]
material = ExtResource( 1 )
position = Vector2( 112, 80 )
texture = ExtResource( 2 )
script = ExtResource( 3 )

