[gd_scene load_steps=2 format=2]

[ext_resource path="res://archived/TestTileset.tres" type="TileSet" id=1]


[node name="TileMap" type="TileMap"]
z_index = -1
tile_set = ExtResource( 1 )
cell_size = Vector2( 16, 16 )
format = 1
tile_data = PoolIntArray( -458752, 1, 0, -458751, 1, 0, -458750, 1, 0, -458749, 1, 0, -458748, 1, 0, -458747, 1, 0, -458746, 1, 0, -458745, 1, 0, -458744, 1, 0, -458743, 1, 0, -458742, 1, 0, -458741, 1, 0, -458740, 1, 0, -458739, 1, 0, -458738, 1, 0, -458737, 1, 0, -458736, 1, 0, -458735, 1, 0, -458734, 1, 0, -458733, 1, 0, -458732, 1, 0, -458731, 1, 0, -458730, 1, 0, -458729, 1, 0, -458728, 1, 0, -458727, 1, 0, -458726, 1, 0, -458725, 1, 0, -458724, 1, 0, -458723, 1, 0, -458722, 1, 0, -458721, 1, 0, -458720, 1, 0, -458719, 1, 0, -458718, 1, 0, -458717, 1, 0, -458716, 1, 0, -458715, 1, 0, -458714, 1, 0, -458713, 1, 0, -458712, 1, 0, -458711, 1, 0, -458710, 1, 0, -458709, 1, 0, -458708, 1, 0, -458707, 1, 0, -458706, 1, 0, -458705, 1, 0, -458704, 1, 0, -458703, 1, 0, -458702, 1, 0, -458701, 1, 0, -458700, 1, 0, -458699, 1, 0, -458698, 1, 0, -458697, 1, 0, -458696, 1, 0, -458695, 1, 0, -458694, 1, 0, -458693, 1, 0, -458692, 1, 0, -458691, 1, 0, -458690, 1, 0, -458689, 1, 0, -458688, 1, 0, -458687, 1, 0, -458686, 1, 0, -458685, 1, 0, -458684, 1, 0, -458683, 1, 0, -458682, 1, 0, -458681, 1, 0, -458680, 1, 0, -458679, 1, 0, -458678, 1, 0, -458677, 1, 0, -458676, 1, 0, -458675, 1, 0, -458674, 1, 0, -458673, 1, 0, -458672, 1, 0, -458671, 1, 0, -458670, 1, 0, -458669, 1, 0, -458668, 1, 0, -458667, 1, 0, -458666, 1, 0, -458665, 1, 0, -458664, 1, 0, -458663, 1, 0, -458662, 1, 0, -458661, 1, 0, -458660, 1, 0, -458659, 1, 0, -458658, 1, 0, -458657, 1, 0, -458656, 1, 0, -458655, 1, 0, -458654, 1, 0, -458653, 1, 0, -458652, 1, 0, -458651, 1, 0, -458650, 1, 0, -458649, 1, 0, -458648, 1, 0, -458647, 1, 0, -458646, 1, 0, -458645, 1, 0, -458644, 1, 0, -458643, 1, 0, -458642, 1, 0, -458641, 1, 0, -458640, 1, 0, -458639, 1, 0, -458638, 1, 0, -458637, 1, 0, -458636, 1, 0, -458635, 1, 0, -458634, 1, 0, -458633, 1, 0, -458632, 1, 0, -458631, 1, 0, -458630, 1, 0, -458629, 1, 0, -458628, 1, 0, -458627, 1, 0, -393216, 1, 0, -393215, 1, 0, -393214, 1, 0, -393213, 1, 0, -393212, 1, 0, -393211, 1, 0, -393210, 1, 0, -393209, 1, 0, -393208, 1, 0, -393207, 1, 0, -393206, 1, 0, -393205, 1, 0, -393204, 1, 0, -393203, 1, 0, -393202, 1, 0, -393201, 1, 0, -393200, 1, 0, -393199, 1, 0, -393198, 1, 0, -393197, 1, 0, -393196, 1, 0, -393195, 1, 0, -393194, 1, 0, -393193, 1, 0, -393192, 1, 0, -393191, 1, 0, -393190, 1, 0, -393189, 1, 0, -393188, 1, 0, -393187, 1, 0, -393186, 1, 0, -393185, 1, 0, -393184, 1, 0, -393183, 1, 0, -393182, 1, 0, -393181, 1, 0, -393180, 1, 0, -393179, 1, 0, -393178, 1, 0, -393177, 1, 0, -393176, 1, 0, -393175, 1, 0, -393174, 1, 0, -393173, 1, 0, -393172, 1, 0, -393171, 1, 0, -393170, 1, 0, -393169, 1, 0, -393168, 1, 0, -393167, 1, 0, -393166, 1, 0, -393165, 1, 0, -393164, 1, 0, -393163, 1, 0, -393162, 1, 0, -393161, 1, 0, -393160, 1, 0, -393159, 1, 0, -393158, 1, 0, -393157, 1, 0, -393156, 1, 0, -393155, 1, 0, -393154, 1, 0, -393153, 1, 0, -393152, 1, 0, -393151, 1, 0, -393150, 1, 0, -393149, 1, 0, -393148, 1, 0, -393147, 1, 0, -393146, 1, 0, -393145, 1, 0, -393144, 1, 0, -393143, 1, 0, -393142, 1, 0, -393141, 1, 0, -393140, 1, 0, -393139, 1, 0, -393138, 1, 0, -393137, 1, 0, -393136, 1, 0, -393135, 1, 0, -393134, 1, 0, -393133, 1, 0, -393132, 1, 0, -393131, 1, 0, -393130, 1, 0, -393129, 1, 0, -393128, 1, 0, -393127, 1, 0, -393126, 1, 0, -393125, 1, 0, -393124, 1, 0, -393123, 1, 0, -393122, 1, 0, -393121, 1, 0, -393120, 1, 0, -393119, 1, 0, -393118, 1, 0, -393117, 1, 0, -393116, 1, 0, -393115, 1, 0, -393114, 1, 0, -393113, 1, 0, -393112, 1, 0, -393111, 1, 0, -393110, 1, 0, -393109, 1, 0, -393108, 1, 0, -393107, 1, 0, -393106, 1, 0, -393105, 1, 0, -393104, 1, 0, -393103, 1, 0, -393102, 1, 0, -393101, 1, 0, -393100, 1, 0, -393099, 1, 0, -393098, 1, 0, -393097, 1, 0, -393096, 1, 0, -393095, 1, 0, -393094, 1, 0, -393093, 1, 0, -393092, 1, 0, -393091, 1, 0, -327680, 1, 0, -327679, 1, 0, -327639, 1, 0, -327638, 1, 0, -327637, 1, 0, -327636, 1, 0, -327635, 1, 0, -327634, 1, 0, -327633, 1, 0, -327632, 1, 0, -327631, 1, 0, -327630, 1, 0, -327629, 1, 0, -327628, 1, 0, -327627, 1, 0, -327626, 1, 0, -327625, 1, 0, -327624, 1, 0, -327623, 1, 0, -327622, 1, 0, -327621, 1, 0, -327620, 1, 0, -327619, 1, 0, -327618, 1, 0, -327617, 1, 0, -327616, 1, 0, -327615, 1, 0, -327614, 1, 0, -327613, 1, 0, -327612, 1, 0, -327611, 1, 0, -327610, 1, 0, -327609, 1, 0, -327608, 1, 0, -327607, 1, 0, -327606, 1, 0, -327605, 1, 0, -327604, 1, 0, -327603, 1, 0, -327602, 1, 0, -327601, 1, 0, -327600, 1, 0, -327599, 1, 0, -327598, 1, 0, -327597, 1, 0, -327596, 1, 0, -327595, 1, 0, -327594, 1, 0, -327593, 1, 0, -327592, 1, 0, -327591, 1, 0, -327590, 1, 0, -327589, 1, 0, -327588, 1, 0, -327587, 1, 0, -327586, 1, 0, -327585, 1, 0, -327584, 1, 0, -327583, 1, 0, -327582, 1, 0, -327581, 1, 0, -327580, 1, 0, -327579, 1, 0, -327578, 1, 0, -327577, 1, 0, -327576, 1, 0, -327575, 1, 0, -327574, 1, 0, -327573, 1, 0, -327572, 1, 0, -327571, 1, 0, -327570, 1, 0, -327569, 1, 0, -327568, 1, 0, -327567, 1, 0, -327566, 1, 0, -327565, 1, 0, -327564, 1, 0, -327563, 1, 0, -327562, 1, 0, -327561, 1, 0, -327560, 1, 0, -327559, 1, 0, -327558, 1, 0, -327557, 1, 0, -327556, 1, 0, -327555, 1, 0, -262144, 1, 0, -262143, 1, 0, -262103, 1, 0, -262102, 1, 0, -262101, 1, 0, -262100, 1, 0, -262099, 1, 0, -262098, 1, 0, -262097, 1, 0, -262096, 1, 0, -262095, 1, 0, -262094, 1, 0, -262093, 1, 0, -262092, 1, 0, -262091, 1, 0, -262090, 1, 0, -262089, 1, 0, -262088, 1, 0, -262087, 1, 0, -262086, 1, 0, -262085, 1, 0, -262084, 1, 0, -262083, 1, 0, -262082, 1, 0, -262081, 1, 0, -262080, 1, 0, -262079, 1, 0, -262078, 1, 0, -262077, 1, 0, -262076, 1, 0, -262075, 1, 0, -262074, 1, 0, -262073, 1, 0, -262072, 1, 0, -262071, 1, 0, -262070, 1, 0, -262069, 1, 0, -262068, 1, 0, -262067, 1, 0, -262066, 1, 0, -262065, 1, 0, -262064, 1, 0, -262063, 1, 0, -262062, 1, 0, -262061, 1, 0, -262060, 1, 0, -262059, 1, 0, -262058, 1, 0, -262057, 1, 0, -262056, 1, 0, -262055, 1, 0, -262054, 1, 0, -262053, 1, 0, -262052, 1, 0, -262051, 1, 0, -262050, 1, 0, -262049, 1, 0, -262048, 1, 0, -262047, 1, 0, -262046, 1, 0, -262045, 1, 0, -262044, 1, 0, -262043, 1, 0, -262042, 1, 0, -262041, 1, 0, -262040, 1, 0, -262039, 1, 0, -262038, 1, 0, -262037, 1, 0, -262036, 1, 0, -262035, 1, 0, -262034, 1, 0, -262033, 1, 0, -262032, 1, 0, -262031, 1, 0, -262030, 1, 0, -262029, 1, 0, -262028, 1, 0, -262027, 1, 0, -262026, 1, 0, -262025, 1, 0, -262024, 1, 0, -262023, 1, 0, -262022, 1, 0, -262021, 1, 0, -262020, 1, 0, -262019, 1, 0, -196608, 1, 0, -196607, 1, 0, -196567, 1, 0, -196566, 1, 0, -196565, 1, 0, -196564, 1, 0, -196563, 1, 0, -196562, 1, 0, -196561, 1, 0, -196560, 1, 0, -196559, 1, 0, -196558, 1, 0, -196557, 1, 0, -196556, 1, 0, -196555, 1, 0, -196554, 1, 0, -196553, 1, 0, -196552, 1, 0, -196551, 1, 0, -196550, 1, 0, -196549, 1, 0, -196548, 1, 0, -196547, 1, 0, -196546, 1, 0, -196545, 1, 0, -196544, 1, 0, -196543, 1, 0, -196542, 1, 0, -196541, 1, 0, -196540, 1, 0, -196539, 1, 0, -196538, 1, 0, -196537, 1, 0, -196536, 1, 0, -196535, 1, 0, -196534, 1, 0, -196533, 1, 0, -196532, 1, 0, -196531, 1, 0, -196530, 1, 0, -196529, 1, 0, -196528, 1, 0, -196527, 1, 0, -196526, 1, 0, -196525, 1, 0, -196524, 1, 0, -196523, 1, 0, -196522, 1, 0, -196521, 1, 0, -196520, 1, 0, -196519, 1, 0, -196518, 1, 0, -196517, 1, 0, -196516, 1, 0, -196515, 1, 0, -196514, 1, 0, -196513, 1, 0, -196512, 1, 0, -196511, 1, 0, -196510, 1, 0, -196509, 1, 0, -196508, 1, 0, -196507, 1, 0, -196506, 1, 0, -196505, 1, 0, -196504, 1, 0, -196503, 1, 0, -196502, 1, 0, -196501, 1, 0, -196500, 1, 0, -196499, 1, 0, -196498, 1, 0, -196497, 1, 0, -196496, 1, 0, -196495, 1, 0, -196494, 1, 0, -196493, 1, 0, -196492, 1, 0, -196491, 1, 0, -196490, 1, 0, -196489, 1, 0, -196488, 1, 0, -196487, 1, 0, -196486, 1, 0, -196485, 1, 0, -196484, 1, 0, -196483, 1, 0, -131072, 1, 0, -131071, 1, 0, -131066, 1, 0, -131065, 1, 0, -131064, 1, 0, -131063, 1, 0, -131062, 1, 0, -131061, 1, 0, -131060, 1, 0, -131059, 1, 0, -131058, 1, 0, -131031, 1, 0, -131030, 1, 0, -131029, 1, 0, -131028, 1, 0, -131027, 1, 0, -131026, 1, 0, -131025, 1, 0, -131024, 1, 0, -131023, 1, 0, -131022, 1, 0, -131021, 1, 0, -131020, 1, 0, -131019, 1, 0, -131018, 1, 0, -131017, 1, 0, -131016, 1, 0, -131015, 1, 0, -131014, 1, 0, -131013, 1, 0, -131012, 1, 0, -131011, 1, 0, -131010, 1, 0, -131009, 1, 0, -131008, 1, 0, -131007, 1, 0, -131006, 1, 0, -131005, 1, 0, -131004, 1, 0, -131003, 1, 0, -131002, 1, 0, -131001, 1, 0, -131000, 1, 0, -130999, 1, 0, -130998, 1, 0, -130997, 1, 0, -130996, 1, 0, -130995, 1, 0, -130994, 1, 0, -130993, 1, 0, -130992, 1, 0, -130991, 1, 0, -130990, 1, 0, -130989, 1, 0, -130988, 1, 0, -130987, 1, 0, -130986, 1, 0, -130985, 1, 0, -130984, 1, 0, -130983, 1, 0, -130982, 1, 0, -130981, 1, 0, -130980, 1, 0, -130979, 1, 0, -130978, 1, 0, -130977, 1, 0, -130976, 1, 0, -130975, 1, 0, -130974, 1, 0, -130973, 1, 0, -130972, 1, 0, -130971, 1, 0, -130970, 1, 0, -130969, 1, 0, -130968, 1, 0, -130967, 1, 0, -130966, 1, 0, -130965, 1, 0, -130964, 1, 0, -130963, 1, 0, -130962, 1, 0, -130961, 1, 0, -130960, 1, 0, -130959, 1, 0, -130958, 1, 0, -130957, 1, 0, -130956, 1, 0, -130955, 1, 0, -130954, 1, 0, -130953, 1, 0, -130952, 1, 0, -130951, 1, 0, -130950, 1, 0, -130949, 1, 0, -130948, 1, 0, -130947, 1, 0, -65536, 1, 0, -65535, 1, 0, -65530, 1, 0, -65529, 1, 0, -65528, 1, 0, -65527, 1, 0, -65526, 1, 0, -65525, 1, 0, -65524, 1, 0, -65523, 1, 0, -65522, 1, 0, -65515, 1, 0, -65514, 1, 0, -65513, 1, 0, -65512, 1, 0, -65495, 1, 0, -65494, 1, 0, -65493, 1, 0, -65492, 1, 0, -65491, 1, 0, -65490, 1, 0, -65489, 1, 0, -65488, 1, 0, -65487, 1, 0, -65486, 1, 0, -65485, 1, 0, -65484, 1, 0, -65483, 1, 0, -65482, 1, 0, -65481, 1, 0, -65480, 1, 0, -65479, 1, 0, -65478, 1, 0, -65477, 1, 0, -65476, 1, 0, -65475, 1, 0, -65474, 1, 0, -65473, 1, 0, -65472, 1, 0, -65471, 1, 0, -65470, 1, 0, -65469, 1, 0, -65468, 1, 0, -65467, 1, 0, -65466, 1, 0, -65465, 1, 0, -65464, 1, 0, -65463, 1, 0, -65462, 1, 0, -65461, 1, 0, -65460, 1, 0, -65459, 1, 0, -65458, 1, 0, -65457, 1, 0, -65456, 1, 0, -65455, 1, 0, -65454, 1, 0, -65453, 1, 0, -65452, 1, 0, -65451, 1, 0, -65450, 1, 0, -65449, 1, 0, -65448, 1, 0, -65447, 1, 0, -65446, 1, 0, -65445, 1, 0, -65444, 1, 0, -65443, 1, 0, -65442, 1, 0, -65441, 1, 0, -65440, 1, 0, -65439, 1, 0, -65438, 1, 0, -65437, 1, 0, -65436, 1, 0, -65435, 1, 0, -65434, 1, 0, -65433, 1, 0, -65432, 1, 0, -65431, 1, 0, -65430, 1, 0, -65429, 1, 0, -65428, 1, 0, -65427, 1, 0, -65426, 1, 0, -65425, 1, 0, -65424, 1, 0, -65423, 1, 0, -65422, 1, 0, -65421, 1, 0, -65420, 1, 0, -65419, 1, 0, -65418, 1, 0, -65417, 1, 0, -65416, 1, 0, -65415, 1, 0, -65414, 1, 0, -65413, 1, 0, -65412, 1, 0, -65411, 1, 0, 0, 1, 0, 1, 1, 0, 8, 6, 0, 9, 6, 1, 10, 6, 1, 11, 6, 1, 12, 6, 2, 22, 1, 0, 23, 1, 0, 24, 1, 0, 25, 1, 0, 26, 1, 0, 27, 1, 0, 28, 1, 0, 41, 1, 0, 42, 1, 0, 43, 1, 0, 44, 1, 0, 45, 1, 0, 46, 1, 0, 47, 1, 0, 48, 1, 0, 49, 1, 0, 50, 1, 0, 51, 1, 0, 52, 1, 0, 53, 1, 0, 54, 1, 0, 55, 1, 0, 56, 1, 0, 57, 1, 0, 58, 1, 0, 59, 1, 0, 60, 1, 0, 61, 1, 0, 62, 1, 0, 63, 1, 0, 64, 1, 0, 65, 1, 0, 66, 1, 0, 67, 1, 0, 68, 1, 0, 69, 1, 0, 70, 1, 0, 71, 1, 0, 72, 1, 0, 73, 1, 0, 74, 1, 0, 75, 1, 0, 76, 1, 0, 77, 1, 0, 78, 1, 0, 79, 1, 0, 80, 1, 0, 81, 1, 0, 82, 1, 0, 83, 1, 0, 84, 1, 0, 85, 1, 0, 86, 1, 0, 87, 1, 0, 88, 1, 0, 89, 1, 0, 90, 1, 0, 91, 1, 0, 92, 1, 0, 93, 1, 0, 94, 1, 0, 95, 1, 0, 96, 1, 0, 97, 1, 0, 98, 1, 0, 99, 1, 0, 100, 1, 0, 101, 1, 0, 102, 1, 0, 103, 1, 0, 104, 1, 0, 105, 1, 0, 106, 1, 0, 107, 1, 0, 108, 1, 0, 109, 1, 0, 110, 1, 0, 111, 1, 0, 112, 1, 0, 113, 1, 0, 114, 1, 0, 115, 1, 0, 116, 1, 0, 117, 1, 0, 118, 1, 0, 119, 1, 0, 120, 1, 0, 121, 1, 0, 122, 1, 0, 123, 1, 0, 124, 1, 0, 125, 1, 0, 65536, 1, 0, 65537, 1, 0, 65544, 6, 65536, 65545, 6, 65537, 65546, 6, 65537, 65547, 6, 65537, 65548, 6, 65538, 65559, 1, 0, 65560, 1, 0, 65561, 1, 0, 65562, 1, 0, 65563, 1, 0, 65564, 1, 0, 65565, 1, 0, 65566, 1, 0, 65567, 1, 0, 65577, 1, 0, 65578, 1, 0, 65579, 1, 0, 65580, 1, 0, 65581, 1, 0, 65582, 1, 0, 65583, 1, 0, 65584, 1, 0, 65617, 1, 0, 65618, 1, 0, 65619, 1, 0, 65620, 1, 0, 65621, 1, 0, 65622, 2, 0, 65627, 3, 0, 65628, 1, 0, 65629, 1, 0, 65630, 1, 0, 65631, 1, 0, 65632, 1, 0, 65633, 2, 0, 65638, 3, 0, 65639, 1, 0, 65640, 1, 0, 65641, 1, 0, 65642, 1, 0, 65643, 1, 0, 65644, 1, 0, 65645, 1, 0, 65646, 1, 0, 65647, 1, 0, 65648, 1, 0, 65649, 1, 0, 65650, 1, 0, 65651, 1, 0, 65652, 1, 0, 65653, 1, 0, 65654, 1, 0, 65655, 1, 0, 65656, 1, 0, 65657, 1, 0, 65658, 1, 0, 65659, 1, 0, 65660, 1, 0, 65661, 1, 0, 131072, 1, 0, 131073, 1, 0, 131074, 1, 0, 131075, 1, 0, 131080, 6, 65536, 131081, 6, 65537, 131082, 6, 65537, 131083, 6, 65537, 131084, 6, 65538, 131099, 1, 0, 131100, 1, 0, 131101, 1, 0, 131102, 1, 0, 131103, 1, 0, 131104, 1, 0, 131105, 1, 0, 131106, 1, 0, 131113, 1, 0, 131114, 1, 0, 131115, 1, 0, 131116, 1, 0, 131117, 1, 0, 131118, 1, 0, 131119, 1, 0, 131120, 1, 0, 131153, 1, 0, 131154, 1, 0, 131155, 1, 0, 131156, 1, 0, 131157, 2, 0, 131164, 3, 0, 131165, 1, 0, 131166, 1, 0, 131167, 1, 0, 131168, 2, 0, 131175, 3, 0, 131176, 1, 0, 131177, 1, 0, 131178, 1, 0, 131179, 1, 0, 131180, 1, 0, 131181, 1, 0, 131182, 1, 0, 131183, 1, 0, 131184, 1, 0, 131185, 1, 0, 131186, 1, 0, 131187, 1, 0, 131188, 1, 0, 131189, 1, 0, 131190, 1, 0, 131191, 1, 0, 131192, 1, 0, 131193, 1, 0, 131194, 1, 0, 131195, 1, 0, 131196, 1, 0, 131197, 1, 0, 196608, 1, 0, 196609, 1, 0, 196610, 1, 0, 196611, 1, 0, 196616, 6, 65536, 196617, 6, 65537, 196618, 6, 65537, 196619, 6, 65537, 196620, 6, 65538, 196626, 1, 0, 196627, 1, 0, 196638, 1, 0, 196639, 1, 0, 196640, 1, 0, 196641, 1, 0, 196642, 1, 0, 196643, 1, 0, 196644, 1, 0, 196645, 1, 0, 196649, 1, 0, 196650, 1, 0, 196651, 1, 0, 196652, 1, 0, 196653, 1, 0, 196654, 1, 0, 196655, 1, 0, 196656, 1, 0, 196689, 1, 0, 196690, 1, 0, 196691, 1, 0, 196692, 2, 0, 196701, 3, 0, 196702, 1, 0, 196703, 2, 0, 196712, 3, 0, 196713, 1, 0, 196714, 1, 0, 196715, 1, 0, 196716, 1, 0, 196717, 1, 0, 196718, 1, 0, 196719, 1, 0, 196720, 1, 0, 196721, 1, 0, 196722, 1, 0, 196723, 1, 0, 196724, 1, 0, 196725, 1, 0, 196726, 1, 0, 196727, 1, 0, 196728, 1, 0, 196729, 1, 0, 196730, 1, 0, 196731, 1, 0, 196732, 1, 0, 196733, 1, 0, 262144, 1, 0, 262145, 1, 0, 262146, 2, 0, 262152, 6, 65536, 262153, 6, 65537, 262154, 6, 65537, 262155, 6, 65537, 262156, 6, 65538, 262162, 3, 0, 262163, 1, 0, 262177, 1, 0, 262178, 1, 0, 262179, 1, 0, 262180, 1, 0, 262181, 1, 0, 262182, 1, 0, 262183, 1, 0, 262184, 1, 0, 262185, 1, 0, 262186, 1, 0, 262187, 1, 0, 262188, 1, 0, 262189, 1, 0, 262190, 1, 0, 262191, 1, 0, 262192, 1, 0, 262225, 1, 0, 262226, 1, 0, 262227, 1, 0, 262249, 1, 0, 262250, 1, 0, 262251, 1, 0, 262252, 1, 0, 262253, 1, 0, 262254, 1, 0, 262255, 1, 0, 262256, 1, 0, 262257, 1, 0, 262258, 1, 0, 262259, 1, 0, 262260, 1, 0, 262261, 1, 0, 262262, 1, 0, 262263, 1, 0, 262264, 1, 0, 262265, 1, 0, 262266, 1, 0, 262267, 1, 0, 262268, 1, 0, 262269, 1, 0, 327680, 1, 0, 327681, 1, 0, 327688, 6, 65536, 327689, 6, 65537, 327690, 6, 65537, 327691, 6, 65537, 327692, 6, 65538, 327714, 1, 0, 327715, 1, 0, 327716, 1, 0, 327717, 1, 0, 327718, 1, 0, 327719, 1, 0, 327720, 1, 0, 327721, 1, 0, 327722, 1, 0, 327723, 1, 0, 327724, 1, 0, 327725, 1, 0, 327726, 1, 0, 327727, 1, 0, 327728, 1, 0, 327737, 1, 0, 327738, 1, 0, 327745, 1, 0, 327746, 1, 0, 327753, 1, 0, 327754, 1, 0, 327761, 1, 0, 327762, 1, 0, 327763, 2, 0, 327785, 3, 0, 327786, 1, 0, 327787, 1, 0, 327788, 1, 0, 327789, 1, 0, 327790, 1, 0, 327791, 1, 0, 327792, 1, 0, 327793, 1, 0, 327794, 1, 0, 327795, 1, 0, 327796, 1, 0, 327797, 1, 0, 327798, 1, 0, 327799, 1, 0, 327800, 1, 0, 327801, 1, 0, 327802, 1, 0, 327803, 1, 0, 327804, 1, 0, 327805, 1, 0, 393216, 1, 0, 393217, 1, 0, 393222, 1, 0, 393223, 1, 0, 393224, 1, 0, 393225, 6, 65537, 393226, 6, 65537, 393227, 6, 65537, 393228, 1, 0, 393229, 1, 0, 393230, 1, 0, 393252, 1, 0, 393253, 1, 0, 393254, 1, 0, 393255, 1, 0, 393256, 1, 0, 393257, 1, 0, 393258, 1, 0, 393259, 1, 0, 393260, 1, 0, 393261, 1, 0, 393262, 1, 0, 393263, 1, 0, 393264, 1, 0, 393273, 1, 0, 393274, 1, 0, 393281, 1, 0, 393282, 1, 0, 393289, 1, 0, 393290, 1, 0, 393297, 1, 0, 393298, 1, 0, 393322, 1, 0, 393323, 1, 0, 393324, 1, 0, 393325, 1, 0, 393326, 1, 0, 393327, 1, 0, 393328, 1, 0, 393329, 1, 0, 393330, 1, 0, 393331, 1, 0, 393332, 1, 0, 393333, 1, 0, 393334, 1, 0, 393335, 1, 0, 393336, 1, 0, 393337, 1, 0, 393338, 1, 0, 393339, 1, 0, 393340, 1, 0, 393341, 1, 0, 458752, 1, 0, 458753, 1, 0, 458758, 6, 0, 458759, 6, 1, 458760, 6, 1, 458761, 6, 65537, 458762, 6, 65537, 458763, 6, 65537, 458764, 6, 1, 458765, 6, 1, 458766, 6, 2, 458791, 1, 0, 458792, 1, 0, 458793, 1, 0, 458794, 1, 0, 458795, 1, 0, 458796, 1, 0, 458797, 1, 0, 458798, 1, 0, 458799, 1, 0, 458800, 1, 0, 458801, 1, 0, 458802, 1, 0, 458803, 1, 0, 458804, 1, 0, 458805, 1, 0, 458806, 1, 0, 458807, 1, 0, 458808, 1, 0, 458809, 1, 0, 458810, 1, 0, 458811, 1, 0, 458812, 1, 0, 458813, 1, 0, 458814, 1, 0, 458815, 1, 0, 458816, 1, 0, 458817, 1, 0, 458818, 1, 0, 458819, 1, 0, 458820, 1, 0, 458821, 1, 0, 458822, 1, 0, 458823, 1, 0, 458824, 1, 0, 458825, 1, 0, 458826, 1, 0, 458827, 1, 0, 458828, 1, 0, 458829, 1, 0, 458830, 1, 0, 458831, 1, 0, 458832, 1, 0, 458833, 1, 0, 458834, 1, 0, 458858, 1, 0, 458859, 1, 0, 458860, 1, 0, 458861, 1, 0, 458862, 1, 0, 458863, 1, 0, 458864, 1, 0, 458865, 1, 0, 458866, 1, 0, 458867, 1, 0, 458868, 1, 0, 458869, 1, 0, 458870, 1, 0, 458871, 1, 0, 458872, 1, 0, 458873, 1, 0, 458874, 1, 0, 458875, 1, 0, 458876, 1, 0, 458877, 1, 0, 524288, 1, 0, 524289, 1, 0, 524294, 6, 65536, 524295, 6, 65537, 524296, 6, 65537, 524297, 6, 65537, 524298, 6, 65537, 524299, 6, 65537, 524300, 6, 65537, 524301, 6, 65537, 524302, 6, 65538, 524328, 1, 0, 524329, 1, 0, 524330, 1, 0, 524331, 1, 0, 524332, 1, 0, 524333, 1, 0, 524334, 1, 0, 524335, 1, 0, 524336, 1, 0, 524337, 1, 0, 524338, 1, 0, 524339, 1, 0, 524340, 1, 0, 524341, 1, 0, 524342, 1, 0, 524343, 1, 0, 524344, 1, 0, 524345, 1, 0, 524346, 1, 0, 524347, 1, 0, 524348, 1, 0, 524349, 1, 0, 524350, 1, 0, 524351, 1, 0, 524352, 1, 0, 524353, 1, 0, 524354, 1, 0, 524355, 1, 0, 524356, 1, 0, 524357, 1, 0, 524358, 1, 0, 524359, 1, 0, 524360, 1, 0, 524361, 1, 0, 524362, 1, 0, 524363, 1, 0, 524364, 1, 0, 524365, 1, 0, 524366, 1, 0, 524367, 1, 0, 524368, 1, 0, 524369, 1, 0, 524370, 1, 0, 524394, 1, 0, 524395, 1, 0, 524396, 1, 0, 524397, 1, 0, 524398, 1, 0, 524399, 1, 0, 524400, 1, 0, 524401, 1, 0, 524402, 1, 0, 524403, 1, 0, 524404, 1, 0, 524405, 1, 0, 524406, 1, 0, 524407, 1, 0, 524408, 1, 0, 524409, 1, 0, 524410, 1, 0, 524411, 1, 0, 524412, 1, 0, 524413, 1, 0, 589824, 1, 0, 589825, 1, 0, 589830, 6, 65536, 589831, 6, 65537, 589832, 6, 65537, 589833, 6, 65537, 589834, 6, 65537, 589835, 6, 65537, 589836, 6, 65537, 589837, 6, 65537, 589838, 6, 65538, 589865, 1, 0, 589866, 1, 0, 589867, 1, 0, 589868, 1, 0, 589869, 1, 0, 589870, 1, 0, 589871, 1, 0, 589872, 1, 0, 589873, 1, 0, 589874, 1, 0, 589875, 1, 0, 589876, 1, 0, 589877, 1, 0, 589878, 1, 0, 589879, 1, 0, 589880, 1, 0, 589881, 1, 0, 589882, 1, 0, 589883, 1, 0, 589884, 1, 0, 589885, 1, 0, 589886, 1, 0, 589887, 1, 0, 589888, 1, 0, 589889, 1, 0, 589890, 1, 0, 589891, 1, 0, 589892, 1, 0, 589893, 1, 0, 589894, 1, 0, 589895, 1, 0, 589896, 1, 0, 589897, 1, 0, 589898, 1, 0, 589899, 1, 0, 589900, 1, 0, 589901, 1, 0, 589902, 1, 0, 589903, 1, 0, 589904, 1, 0, 589905, 1, 0, 589906, 1, 0, 589930, 1, 0, 589931, 1, 0, 589932, 1, 0, 589933, 1, 0, 589934, 1, 0, 589935, 1, 0, 589936, 1, 0, 589937, 1, 0, 589938, 1, 0, 589939, 1, 0, 589940, 1, 0, 589941, 1, 0, 589942, 1, 0, 589943, 1, 0, 589944, 1, 0, 589945, 1, 0, 589946, 1, 0, 589947, 1, 0, 589948, 1, 0, 589949, 1, 0, 655360, 1, 0, 655361, 1, 0, 655366, 6, 65536, 655367, 6, 65537, 655368, 6, 65537, 655369, 6, 65537, 655370, 6, 65537, 655371, 6, 65537, 655372, 6, 65537, 655373, 6, 65537, 655374, 6, 65538, 655380, 5, 0, 655381, 1, 0, 655382, 1, 0, 655383, 4, 0, 720896, 1, 0, 720897, 1, 0, 720902, 6, 65536, 720903, 6, 65537, 720904, 6, 65537, 720905, 6, 65537, 720906, 6, 65537, 720907, 6, 65537, 720908, 6, 65537, 720909, 6, 65537, 720910, 6, 65538, 720915, 5, 0, 720916, 0, 0, 720917, 0, 0, 720918, 0, 0, 720919, 0, 0, 720920, 4, 0, 720925, 1, 0, 786432, 1, 0, 786433, 1, 0, 786434, 4, 0, 786438, 6, 65536, 786439, 6, 65537, 786440, 6, 65537, 786441, 6, 65537, 786442, 6, 65537, 786443, 6, 65537, 786444, 6, 65537, 786445, 6, 65537, 786446, 6, 65538, 786450, 5, 0, 786451, 0, 0, 786452, 0, 0, 786453, 0, 0, 786454, 0, 0, 786455, 0, 0, 786456, 0, 0, 786457, 4, 0, 786461, 1, 0, 851968, 0, 0, 851969, 0, 0, 851970, 0, 0, 851971, 0, 0, 851972, 0, 0, 851973, 0, 0, 851974, 0, 0, 851975, 0, 0, 851976, 0, 0, 851977, 0, 0, 851978, 0, 0, 851979, 0, 0, 851980, 0, 0, 851981, 0, 0, 851982, 0, 0, 851983, 0, 0, 851984, 0, 0, 851985, 0, 0, 851986, 0, 0, 851987, 0, 0, 851988, 0, 0, 851989, 0, 0, 851990, 0, 0, 851991, 0, 0, 851992, 0, 0, 851993, 0, 0, 851994, 0, 0, 851995, 0, 0, 851996, 0, 0, 851997, 0, 0, 851998, 0, 0, 851999, 0, 0, 852000, 0, 0, 852001, 0, 0, 852002, 0, 0, 852003, 0, 0, 852004, 0, 0, 852005, 0, 0, 852006, 0, 0, 852007, 0, 0, 852008, 0, 0, 852009, 0, 0, 852010, 0, 0, 852011, 1, 0, 852012, 1, 0, 852013, 1, 0, 852014, 1, 0, 852015, 1, 0, 852016, 1, 0, 852017, 1, 0, 852018, 1, 0, 852019, 1, 0, 852020, 1, 0, 852021, 1, 0, 852022, 1, 0, 852023, 1, 0, 852024, 1, 0, 852025, 1, 0, 852026, 1, 0, 852027, 1, 0, 852028, 1, 0, 852029, 1, 0, 852030, 1, 0, 852031, 1, 0, 852032, 1, 0, 852033, 1, 0, 852034, 1, 0, 852035, 1, 0, 852036, 1, 0, 852037, 1, 0, 852038, 1, 0, 852039, 1, 0, 852040, 1, 0, 852041, 1, 0, 852042, 1, 0, 852043, 1, 0, 852044, 1, 0, 852045, 1, 0, 852046, 1, 0, 852047, 1, 0, 852048, 1, 0, 852049, 1, 0, 852050, 1, 0, 852051, 1, 0, 852052, 1, 0, 852053, 1, 0, 852054, 1, 0, 852055, 1, 0, 852056, 1, 0, 852057, 1, 0, 852058, 1, 0, 852059, 1, 0, 852060, 1, 0, 852061, 1, 0, 852062, 1, 0, 852063, 1, 0, 852064, 1, 0, 852065, 1, 0, 852066, 1, 0, 852067, 1, 0, 852068, 1, 0, 852069, 1, 0, 852070, 1, 0, 852071, 1, 0, 852072, 1, 0, 852073, 1, 0, 852074, 1, 0, 852075, 1, 0, 852076, 1, 0, 852077, 1, 0, 852078, 1, 0, 852079, 1, 0, 852080, 1, 0, 852081, 1, 0, 852082, 1, 0, 852083, 1, 0, 852084, 1, 0, 852085, 1, 0, 852086, 1, 0, 852087, 1, 0, 852088, 1, 0, 852089, 1, 0, 852090, 1, 0, 852091, 1, 0, 852092, 1, 0, 852093, 1, 0 )

