[gd_scene load_steps=3 format=2]

[ext_resource path="res://src/Levels/scripts/Warp.gd" type="Script" id=1]


[sub_resource type="RectangleShape2D" id=1]
extents = Vector2( 8, 8 )

[node name="Warp" type="Area2D"]
script = ExtResource( 1 )

[node name="CollisionShape2D" type="CollisionShape2D" parent="."]
shape = SubResource( 1 )

[node name="Position2D" type="Position2D" parent="."]

[connection signal="body_entered" from="." to="." method="_on_Warp_body_entered"]
[connection signal="body_exited" from="." to="." method="_on_Warp_body_exited"]
